Learning Tidy Evaluation by Reimplementing {dplyr}
…
<div class="my-footer"><span>https://github.com/chendaniely/2021-02-09-bls-tidyeval</span></div> 

---

# The Famous Penguin Dataset

```r
library(palmerpenguins)
penguins
```

```
## # A tibble: 344 x 8
##    species island bill_length_mm bill_depth_mm flipper_length_~ body_mass_g
##    <fct>   <fct>           <dbl>         <dbl>            <int>       <int>
##  1 Adelie  Torge~           39.1          18.7              181        3750
##  2 Adelie  Torge~           39.5          17.4              186        3800
##  3 Adelie  Torge~           40.3          18                195        3250
##  4 Adelie  Torge~           NA            NA                 NA          NA
##  5 Adelie  Torge~           36.7          19.3              193        3450
##  6 Adelie  Torge~           39.3          20.6              190        3650
##  7 Adelie  Torge~           38.9          17.8              181        3625
##  8 Adelie  Torge~           39.2          19.6              195        4675
##  9 Adelie  Torge~           34.1          18.1              193        3475
## 10 Adelie  Torge~           42            20.2              190        4250
## # ... with 334 more rows, and 2 more variables: sex <fct>, year <int>
```
…
---

# Selecting columns: `base::subset()`

.pull-left[

```r
base::subset(
  penguins,
  select = species)
```

```
## # A tibble: 344 x 1
##    species
##    <fct>  
##  1 Adelie 
##  2 Adelie 
##  3 Adelie 
##  4 Adelie 
##  5 Adelie 
##  6 Adelie 
##  7 Adelie 
##  8 Adelie 
##  9 Adelie 
## 10 Adelie 
## # ... with 334 more rows
```
]
.pull-right[

```r
base::subset(
  x = penguins,
  select = c(species, bill_length_mm))
```

```
## # A tibble: 344 x 2
##    species bill_length_mm
##    <fct>            <dbl>
##  1 Adelie            39.1
##  2 Adelie            39.5
##  3 Adelie            40.3
##  4 Adelie            NA  
##  5 Adelie            36.7
##  6 Adelie            39.3
##  7 Adelie            38.9
##  8 Adelie            39.2
##  9 Adelie            34.1
## 10 Adelie            42  
## # ... with 334 more rows
```
…
<div class="my-footer"><span>https://github.com/chendaniely/2021-02-09-bls-tidyeval</span></div> 

---

# Selecting columns: `dplyr::select()`

.pull-left[

```r
dplyr::select(penguins, species)
```

```
## # A tibble: 344 x 1
##    species
##    <fct>  
##  1 Adelie 
##  2 Adelie 
##  3 Adelie 
##  4 Adelie 
##  5 Adelie 
##  6 Adelie 
##  7 Adelie 
##  8 Adelie 
##  9 Adelie 
## 10 Adelie 
## # ... with 334 more rows
```
]
.pull-right[

```r
penguins %>%
  dplyr::select(species, bill_length_mm)
```

```
## # A tibble: 344 x 2
##    species bill_length_mm
##    <fct>            <dbl>
##  1 Adelie            39.1
##  2 Adelie            39.5
##  3 Adelie            40.3
##  4 Adelie            NA  
##  5 Adelie            36.7
##  6 Adelie            39.3
##  7 Adelie            38.9
##  8 Adelie            39.2
##  9 Adelie            34.1
## 10 Adelie            42  
## # ... with 334 more rows
```
…
<div class="my-footer"><span>https://github.com/chendaniely/2021-02-09-bls-tidyeval</span></div> 

---

# Selecting columns: index position

.pull-left[

```r
penguins[, 1, drop = FALSE]
```

```
## # A tibble: 344 x 1
##    species
##    <fct>  
##  1 Adelie 
##  2 Adelie 
##  3 Adelie 
##  4 Adelie 
##  5 Adelie 
##  6 Adelie 
##  7 Adelie 
##  8 Adelie 
##  9 Adelie 
## 10 Adelie 
## # ... with 334 more rows
```
]
.pull-right[

```r
penguins[, c(1, 3, 5)]
```

```
## # A tibble: 344 x 3
##    species bill_length_mm flipper_length_mm
##    <fct>            <dbl>             <int>
##  1 Adelie            39.1               181
##  2 Adelie            39.5               186
##  3 Adelie            40.3               195
##  4 Adelie            NA                  NA
##  5 Adelie            36.7               193
##  6 Adelie            39.3               190
##  7 Adelie            38.9               181
##  8 Adelie            39.2               195
##  9 Adelie            34.1               193
## 10 Adelie            42                 190
## # ... with 334 more rows
```
…
<div class="my-footer"><span>https://github.com/chendaniely/2021-02-09-bls-tidyeval</span></div> 

---

# Selecting columns

.pull-left[
Direct string column

```r
penguins[, "species"]
```

```
## # A tibble: 344 x 1
##    species
##    <fct>  
##  1 Adelie 
##  2 Adelie 
##  3 Adelie 
##  4 Adelie 
##  5 Adelie 
##  6 Adelie 
##  7 Adelie 
##  8 Adelie 
##  9 Adelie 
## 10 Adelie 
## # ... with 334 more rows
```
]

.pull-right[
Passing a variable

```r
col <- "species"
penguins[, col]
```

```
## # A tibble: 344 x 1
##    species
##    <fct>  
##  1 Adelie 
##  2 Adelie 
##  3 Adelie 
##  4 Adelie 
##  5 Adelie 
##  6 Adelie 
##  7 Adelie 
##  8 Adelie 
##  9 Adelie 
## 10 Adelie 
## # ... with 334 more rows
```
…
```
## species
```
]

.pull-left[

```r
penguins[, as.name("species")]
```

```
## # A tibble: 344 x 1
##    species
##    <fct>  
##  1 Adelie 
##  2 Adelie 
##  3 Adelie 
##  4 Adelie 
##  5 Adelie 
##  6 Adelie 
##  7 Adelie 
##  8 Adelie 
##  9 Adelie 
## 10 Adelie 
## # ... with 334 more rows
```
]

.pull-right[

```r
penguins[, quote(species)]
```

```
## # A tibble: 344 x 1
##    species
##    <fct>  
##  1 Adelie 
##  2 Adelie 
##  3 Adelie 
##  4 Adelie 
##  5 Adelie 
##  6 Adelie 
##  7 Adelie 
##  8 Adelie 
##  9 Adelie 
## 10 Adelie 
## # ... with 334 more rows
```
…
```r
my_select <- function(data, col) {
  return(
*   data[, col, drop = FALSE]
  )
}
```

```r
my_select(penguins, "species")
```

```
## # A tibble: 344 x 1
##    species
##    <fct>  
##  1 Adelie 
##  2 Adelie 
##  3 Adelie 
##  4 Adelie 
##  5 Adelie 
##  6 Adelie 
##  7 Adelie 
##  8 Adelie 
##  9 Adelie 
## 10 Adelie 
## # ... with 334 more rows
```
]

.pull-right[

```r
# remeber this is tibble input specific
my_select(penguins, quote(species))
```

```
## # A tibble: 344 x 1
##    species
##    <fct>  
##  1 Adelie 
##  2 Adelie 
##  3 Adelie 
##  4 Adelie 
##  5 Adelie 
##  6 Adelie 
##  7 Adelie 
##  8 Adelie 
##  9 Adelie 
## 10 Adelie 
## # ... with 334 more rows
```
…
```r
my_select <- function(data, col) {
  return(
*   data[, rlang::enexpr(col), drop = FALSE]
  )
}
```

```r
my_select(penguins, species)
```

```
## # A tibble: 344 x 1
##    species
##    <fct>  
##  1 Adelie 
##  2 Adelie 
##  3 Adelie 
##  4 Adelie 
##  5 Adelie 
##  6 Adelie 
##  7 Adelie 
##  8 Adelie 
##  9 Adelie 
## 10 Adelie 
## # ... with 334 more rows
```
…
```r
my_select <- function(data, col) {
* col <- rlang::enexpr(col)
  return(
*   data[, col, drop = FALSE]
  )
}
```

```r
my_select(penguins, species)
```

```
## # A tibble: 344 x 1
##    species
##    <fct>  
##  1 Adelie 
##  2 Adelie 
##  3 Adelie 
##  4 Adelie 
##  5 Adelie 
##  6 Adelie 
##  7 Adelie 
##  8 Adelie 
##  9 Adelie 
## 10 Adelie 
## # ... with 334 more rows
```
…
.pull-left[
Works on a `tibble`

```r
my_select(penguins, species)
```

```
## # A tibble: 344 x 1
##    species
##    <fct>  
##  1 Adelie 
##  2 Adelie 
##  3 Adelie 
##  4 Adelie 
##  5 Adelie 
##  6 Adelie 
##  7 Adelie 
##  8 Adelie 
##  9 Adelie 
## 10 Adelie 
## # ... with 334 more rows
```
…
.pull-left[

```r
my_select(penguins, species, year, island)
```

```
## # A tibble: 344 x 3
##    species island     year
##    <fct>   <fct>     <int>
##  1 Adelie  Torgersen  2007
##  2 Adelie  Torgersen  2007
##  3 Adelie  Torgersen  2007
##  4 Adelie  Torgersen  2007
##  5 Adelie  Torgersen  2007
##  6 Adelie  Torgersen  2007
##  7 Adelie  Torgersen  2007
##  8 Adelie  Torgersen  2007
##  9 Adelie  Torgersen  2007
## 10 Adelie  Torgersen  2007
## # ... with 334 more rows
```
…
.pull-left[

```r
my_select(penguins, species, year, island)
```

```
## # A tibble: 344 x 3
##    species  year island   
##    <fct>   <int> <fct>    
##  1 Adelie   2007 Torgersen
##  2 Adelie   2007 Torgersen
##  3 Adelie   2007 Torgersen
##  4 Adelie   2007 Torgersen
##  5 Adelie   2007 Torgersen
##  6 Adelie   2007 Torgersen
##  7 Adelie   2007 Torgersen
##  8 Adelie   2007 Torgersen
##  9 Adelie   2007 Torgersen
## 10 Adelie   2007 Torgersen
## # ... with 334 more rows
```
…
# Variables, quoted, unquoted

```r
col_name <- "species"
```

.pull-left[

```r
penguins[, c(col_name, "island", "year")]
```

```
## # A tibble: 344 x 3
##    species island     year
##    <fct>   <fct>     <int>
##  1 Adelie  Torgersen  2007
##  2 Adelie  Torgersen  2007
##  3 Adelie  Torgersen  2007
##  4 Adelie  Torgersen  2007
##  5 Adelie  Torgersen  2007
##  6 Adelie  Torgersen  2007
##  7 Adelie  Torgersen  2007
##  8 Adelie  Torgersen  2007
##  9 Adelie  Torgersen  2007
## 10 Adelie  Torgersen  2007
## # ... with 334 more rows
```
…
```r
penguins %>%
  dplyr::select(col_name, island, year)
```

```
## Note: Using an external vector in selections is ambiguous.
## i Use `all_of(col_name)` instead of `col_name` to silence this message.
## i See <https://tidyselect.r-lib.org/reference/faq-external-vector.html>.
## This message is displayed once per session.
```

```
## # A tibble: 344 x 3
##    species island     year
##    <fct>   <fct>     <int>
##  1 Adelie  Torgersen  2007
##  2 Adelie  Torgersen  2007
##  3 Adelie  Torgersen  2007
##  4 Adelie  Torgersen  2007
##  5 Adelie  Torgersen  2007
##  6 Adelie  Torgersen  2007
##  7 Adelie  Torgersen  2007
##  8 Adelie  Torgersen  2007
##  9 Adelie  Torgersen  2007
## 10 Adelie  Torgersen  2007
## # ... with 334 more rows
```
…
<div class="my-footer"><span>https://github.com/chendaniely/2021-02-09-bls-tidyeval</span></div> 

---

# Variables, quoted, unquoted: `my_select`

.pull-left[
Subsets quoted variables

```r
my_select(penguins, island, year)
```

```
## # A tibble: 344 x 2
##    island     year
##    <fct>     <int>
##  1 Torgersen  2007
##  2 Torgersen  2007
##  3 Torgersen  2007
##  4 Torgersen  2007
##  5 Torgersen  2007
##  6 Torgersen  2007
##  7 Torgersen  2007
##  8 Torgersen  2007
##  9 Torgersen  2007
## 10 Torgersen  2007
## # ... with 334 more rows
```
…
# bang-bang `!!`

```r
col_name <- "species"
```

.pull-left[

```r
penguins %>%
  my_select("island", "year")
```

```
## # A tibble: 344 x 2
##    island     year
##    <fct>     <int>
##  1 Torgersen  2007
##  2 Torgersen  2007
##  3 Torgersen  2007
##  4 Torgersen  2007
##  5 Torgersen  2007
##  6 Torgersen  2007
##  7 Torgersen  2007
##  8 Torgersen  2007
##  9 Torgersen  2007
## 10 Torgersen  2007
## # ... with 334 more rows
```
]

.pull-right[

```r
penguins %>%
  my_select(!!col_name, island, "year")
```

```
## # A tibble: 344 x 3
##    species island     year
##    <fct>   <fct>     <int>
##  1 Adelie  Torgersen  2007
##  2 Adelie  Torgersen  2007
##  3 Adelie  Torgersen  2007
##  4 Adelie  Torgersen  2007
##  5 Adelie  Torgersen  2007
##  6 Adelie  Torgersen  2007
##  7 Adelie  Torgersen  2007
##  8 Adelie  Torgersen  2007
##  9 Adelie  Torgersen  2007
## 10 Adelie  Torgersen  2007
## # ... with 334 more rows
```
…
```
## [1] "list"
```

]

.pull-right[

```r
my_select(penguins, !!!cols)
```

```
## # A tibble: 344 x 3
##    species island     year
##    <fct>   <fct>     <int>
##  1 Adelie  Torgersen  2007
##  2 Adelie  Torgersen  2007
##  3 Adelie  Torgersen  2007
##  4 Adelie  Torgersen  2007
##  5 Adelie  Torgersen  2007
##  6 Adelie  Torgersen  2007
##  7 Adelie  Torgersen  2007
##  8 Adelie  Torgersen  2007
##  9 Adelie  Torgersen  2007
## 10 Adelie  Torgersen  2007
## # ... with 334 more rows
```
…
```r
col_name <- "species"
```

.pull-left[
Bare variable name

```r
penguins %>%
  dplyr::select(col_name, island, year)
```

```
## # A tibble: 344 x 3
##    species island     year
##    <fct>   <fct>     <int>
##  1 Adelie  Torgersen  2007
##  2 Adelie  Torgersen  2007
##  3 Adelie  Torgersen  2007
##  4 Adelie  Torgersen  2007
##  5 Adelie  Torgersen  2007
##  6 Adelie  Torgersen  2007
##  7 Adelie  Torgersen  2007
##  8 Adelie  Torgersen  2007
##  9 Adelie  Torgersen  2007
## 10 Adelie  Torgersen  2007
## # ... with 334 more rows
```

]
.pull-right[
Using `!!` to unquote the variable name

```r
penguins %>%
  dplyr::select(!!col_name, island, year)
```

```
## # A tibble: 344 x 3
##    species island     year
##    <fct>   <fct>     <int>
##  1 Adelie  Torgersen  2007
##  2 Adelie  Torgersen  2007
##  3 Adelie  Torgersen  2007
##  4 Adelie  Torgersen  2007
##  5 Adelie  Torgersen  2007
##  6 Adelie  Torgersen  2007
##  7 Adelie  Torgersen  2007
##  8 Adelie  Torgersen  2007
##  9 Adelie  Torgersen  2007
## 10 Adelie  Torgersen  2007
## # ... with 334 more rows
```
…
```r
my_select(penguins, col_name, year, "island")
```

```
## # A tibble: 344 x 3
##    species  year island   
##    <fct>   <int> <fct>    
##  1 Adelie   2007 Torgersen
##  2 Adelie   2007 Torgersen
##  3 Adelie   2007 Torgersen
##  4 Adelie   2007 Torgersen
##  5 Adelie   2007 Torgersen
##  6 Adelie   2007 Torgersen
##  7 Adelie   2007 Torgersen
##  8 Adelie   2007 Torgersen
##  9 Adelie   2007 Torgersen
## 10 Adelie   2007 Torgersen
## # ... with 334 more rows
```
…
- Getting the index position of the columns

```r
idx <- c(1, 3, 2, 6, 1)
```

- Subsetting using base R on those index positions

```r
penguins[, idx, drop = FALSE]
```

```
## # A tibble: 344 x 5
##    species bill_length_mm island    body_mass_g species
##    <fct>            <dbl> <fct>           <int> <fct>  
##  1 Adelie            39.1 Torgersen        3750 Adelie 
##  2 Adelie            39.5 Torgersen        3800 Adelie 
##  3 Adelie            40.3 Torgersen        3250 Adelie 
##  4 Adelie            NA   Torgersen          NA Adelie 
##  5 Adelie            36.7 Torgersen        3450 Adelie 
##  6 Adelie            39.3 Torgersen        3650 Adelie 
##  7 Adelie            38.9 Torgersen        3625 Adelie 
##  8 Adelie            39.2 Torgersen        4675 Adelie 
##  9 Adelie            34.1 Torgersen        3475 Adelie 
## 10 Adelie            42   Torgersen        4250 Adelie 
## # ... with 334 more rows
```
…
